entity_id;increment_id;b2w_data_estimada
25500;100025511;2018-01-31
25500;100025511;2018-01-31
25501;100025512;2018-01-31
25502;100025513;2018-01-19
25504;100025515;2018-01-31
25506;100025517;2018-01-22
25508;100025519;2018-01-19
25510;100025521;2018-01-31
25515;100025526;2018-01-23
25516;100025527;2018-01-22
25520;100025531;2018-01-30
25521;100025532;2018-01-29
25523;100025534;2018-02-02
25524;100025535;2018-01-23
25525;100025536;2018-01-26
25528;100025539;2018-01-24
25529;100025540;2018-01-26
25532;100025543;2018-01-24
25534;100025545;2018-01-22
25537;100025548;2018-02-01
25541;100025552;2018-01-23
25547;100025558;2018-01-24
25549;100025560;2018-01-23
25551;100025562;2018-01-23
26317;100026328;2018-02-09
26319;100026330;2018-02-21
26320;100026331;2018-02-15
26322;100026333;2018-02-20
26325;100026336;2018-02-09
26329;100026340;2018-02-20
26333;100026344;2018-02-19
26334;100026345;2018-02-09
26339;100026350;2018-02-08
26357;100026368;2018-02-08
26360;100026371;2018-02-21
26364;100026375;2018-02-21
26368;100026379;2018-02-16
26369;100026380;2018-02-15
26378;100026389;2018-02-09
26379;100026390;2018-02-14
26382;100026393;2018-02-22
26384;100026395;2018-02-09
26385;100026396;2018-02-22
26386;100026397;2018-02-22
26395;100026406;2018-02-15
26396;100026407;2018-02-21
26400;100026411;2018-03-06
26404;100026415;2018-02-26
26405;100026416;2018-02-14
26411;100026422;2018-02-23
26413;100026424;2018-02-19
26418;100026429;2018-02-21
26419;100026430;2018-02-16
26422;100026433;2018-02-23
26424;100026435;2018-02-14
26432;100026443;2018-02-20
26435;100026446;2018-02-21
26436;100026447;2018-02-23
26439;100026450;2018-02-16
26442;100026453;2018-02-15
26443;100026454;2018-02-26
26444;100026455;2018-02-21
26448;100026459;2018-03-01
26451;100026462;2018-02-16
26457;100026468;2018-02-26
26461;100026475;2018-02-26
26468;100026482;2018-02-23
26470;100026484;2018-02-19
26472;100026486;2018-02-16
26473;100026487;2018-02-20
26482;100026496;2018-03-05
26485;100026499;2018-03-01
26486;100026500;2018-02-21
26487;100026501;2018-02-16
26492;100026506;2018-03-01
26493;100026507;2018-02-15
26494;100026508;2018-02-20
26496;100026510;2018-02-23
26502;100026516;2018-03-02
26503;100026517;2018-03-01
26506;100026520;2018-02-16
26510;100026524;2018-02-21
26511;100026525;2018-03-09
26512;100026526;2018-02-19
26517;100026532;2018-03-01
26521;100026535;2018-03-01
26522;100026536;2018-02-22
26523;100026537;2018-03-01
26528;100026542;2018-02-21
26529;100026543;2018-03-01
26530;100026544;2018-02-23
26533;100026547;2018-02-19
26534;100026548;2018-02-19
26536;100026550;2018-02-16
26540;100026554;2018-03-01
26541;100026555;2018-02-19
26542;100026556;2018-02-21
27189;100027202;2018-03-06
27190;100027203;2018-03-13
27199;100027212;2018-03-06
27200;100027213;2018-03-06
27201;100027214;2018-03-12
27208;100027221;2018-03-09
27211;100027224;2018-03-02
27216;100027229;2018-03-05
27219;100027232;2018-03-07
27222;100027235;2018-03-07
27225;100027238;2018-03-05
27226;100027239;2018-03-07
27230;100027243;2018-03-08
27231;100027244;2018-03-13
27232;100027245;2018-03-06
27238;100027251;2018-03-13
27240;100027253;2018-03-22
27242;100027255;2018-03-02
27244;100027257;2018-03-13
27245;100027258;2018-03-02
27252;100027265;2018-03-07
27254;100027267;2018-03-12
27256;100027269;2018-03-06
27258;100027271;2018-03-13
27261;100027274;2018-03-06
27262;100027275;2018-03-05
27266;100027279;2018-03-08
27268;100027281;2018-03-09
27270;100027283;2018-03-12
27272;100027285;2018-03-05
27274;100027287;2018-03-06
27276;100027289;2018-03-15
27277;100027290;2018-03-08
27280;100027293;2018-03-05
27281;100027294;2018-03-07
27282;100027295;2018-03-15
27283;100027296;2018-03-14
27286;100027299;2018-03-09
27296;100027309;2018-03-07
27298;100027311;2018-03-14
27301;100027314;2018-03-08
27302;100027315;2018-03-14
27305;100027318;2018-03-07
27320;100027333;2018-03-16
27322;100027335;2018-03-07
27325;100027338;2018-03-12
27327;100027340;2018-03-09
27330;100027343;2018-03-06
27334;100027347;2018-03-14
27335;100027348;2018-03-14
27342;100027355;2018-03-16
27343;100027356;2018-03-12
27344;100027357;2018-03-12
27908;100027922;2018-03-09
27909;100027923;2018-03-20
27910;100027924;2018-03-14
27916;100027930;2018-03-14
27920;100027934;2018-03-16
27921;100027935;2018-03-12
27929;100027943;2018-03-21
27934;100027948;2018-03-13
27939;100027953;2018-03-16
27945;100027959;2018-03-14
27946;100027960;2018-03-12
27950;100027964;2018-03-16
27951;100027965;2018-03-16
27956;100027970;2018-03-21
27958;100027972;2018-03-22
27960;100027974;2018-03-15
27962;100027976;2018-03-20
27964;100027978;2018-03-12
27967;100027981;2018-03-16
27968;100027982;2018-03-13
27971;100027985;2018-03-16
27975;100027989;2018-03-14
27976;100027990;2018-03-21
27977;100027991;2018-03-21
27978;100027992;2018-03-19
27981;100027995;2018-03-13
27984;100027998;2018-03-14
27987;100028001;2018-03-14
27993;100028007;2018-03-16
27994;100028008;2018-03-14
27997;100028011;2018-03-16
28002;100028016;2018-03-14
28003;100028017;2018-03-22
28004;100028018;2018-03-22
28010;100028024;2018-03-20
28011;100028025;2018-03-23
28012;100028026;2018-03-26
28013;100028027;2018-03-22
28027;100028041;2018-03-19
28028;100028042;2018-03-22
28030;100028044;2018-03-14
28031;100028045;2018-03-22
28032;100028046;2018-03-22
28033;100028047;2018-03-22
28034;100028048;2018-03-20
28039;100028053;2018-03-13
28040;100028054;2018-03-21
28041;100028055;2018-03-22
28046;100028060;2018-03-13
28050;100028064;2018-03-14
28051;100028065;2018-03-22
28054;100028068;2018-03-22
28058;100028072;2018-03-15
28064;100028078;2018-03-26
28075;100028089;2018-03-19
28078;100028092;2018-03-26
28083;100028097;2018-04-10
28085;100028099;2018-03-22
28087;100028101;2018-03-23
28091;100028105;2018-03-15
28094;100028108;2018-03-23
28099;100028113;2018-03-16
28105;100028119;2018-03-20
28108;100028122;2018-03-14
28110;100028124;2018-03-21
28111;100028125;2018-03-16
28112;100028126;2018-03-20
28116;100028130;2018-03-26
28117;100028131;2018-03-26
28118;100028132;2018-03-26
28120;100028134;2018-03-21
28123;100028137;2018-03-21
28124;100028138;2018-03-16
28126;100028140;2018-03-15
28128;100028142;2018-03-26
28131;100028145;2018-04-02
28132;100028146;2018-03-16
28134;100028148;2018-03-21
28140;100028154;2018-03-19
28143;100028157;2018-03-16
28146;100028160;2018-03-16
28152;100028166;2018-03-22
28606;100028620;2018-04-02
28611;100028625;2018-03-23
28613;100028627;2018-03-23
28620;100028634;2018-04-02
28628;100028642;2018-03-28
28629;100028643;2018-03-22
28631;100028645;2018-03-27
28632;100028646;2018-03-23
28634;100028648;2018-03-22
28637;100028651;2018-03-26
28638;100028652;2018-04-04
28640;100028654;2018-04-02
28642;100028656;2018-03-27
28647;100028661;2018-04-04
28655;100028669;2018-04-09
28656;100028670;2018-04-05
28657;100028671;2018-04-02
28658;100028672;2018-04-10
28666;100028680;2018-04-06
28667;100028681;2018-04-02
28673;100028687;2018-04-04
28675;100028689;2018-04-04
28678;100028692;2018-04-03
28679;100028693;2018-04-04
28680;100028694;2018-03-23
28684;100028698;2018-04-04
28808;100028822;2018-04-02
29726;100029741;2018-04-23
29733;100029748;2018-04-27
29734;100029749;2018-04-23
29735;100029750;2018-04-27
29739;100029754;2018-04-23
29740;100029755;2018-04-27
29741;100029756;2018-04-27
29745;100029760;2018-04-20
29749;100029764;2018-04-19
29751;100029766;2018-04-27
29752;100029767;2018-04-24
29757;100029772;2018-04-25
29759;100029774;2018-04-27
29768;100029783;2018-04-27
29769;100029784;2018-04-30
29773;100029788;2018-04-19
29774;100029789;2018-04-20
29781;100029796;2018-04-23
29783;100029798;2018-05-02
29784;100029799;2018-04-27
29789;100029804;2018-04-23
29790;100029805;2018-04-20
29792;100029807;2018-04-20
29804;100029819;2018-04-20
29805;100029820;2018-04-30
29806;100029821;2018-04-20
29810;100029825;2018-04-25
29812;100029827;2018-04-23
29813;100029828;2018-04-30
29817;100029832;2018-04-20
29823;100029838;2018-04-26
29826;100029841;2018-04-30
29828;100029843;2018-04-24
29834;100029849;2018-04-30
29835;100029850;2018-04-25
29836;100029851;2018-04-20
29838;100029853;2018-04-27
29839;100029854;2018-04-20
29842;100029857;2018-04-23
29846;100029861;2018-04-20
29849;100029864;2018-04-30
29852;100029867;2018-04-23
29859;100029874;2018-04-30
29860;100029875;2018-04-30
29866;100029881;2018-04-25
29875;100029890;2018-04-30
29878;100029893;2018-04-19
29880;100029895;2018-04-27
29881;100029896;2018-04-19
29883;100029898;2018-04-30
29888;100029903;2018-04-23
29889;100029904;2018-05-03
29890;100029905;2018-04-25
29892;100029907;2018-04-23
29902;100029917;2018-04-25
29908;100029923;2018-04-20
29913;100029928;2018-04-27
29916;100029931;2018-04-26
29917;100029932;2018-04-24
29918;100029933;2018-04-20
29921;100029936;2018-04-24
29923;100029938;2018-05-04
29926;100029941;2018-04-30
29928;100029943;2018-04-27
29932;100029947;2018-05-10
29934;100029949;2018-04-20
29935;100029950;2018-04-27
29940;100029955;2018-04-23
29945;100029960;2018-05-03
29946;100029961;2018-04-24
29948;100029963;2018-05-02
29954;100029969;2018-05-02
29957;100029972;2018-04-25
29959;100029974;2018-04-25
29960;100029975;2018-04-25
29964;100029979;2018-04-24
29965;100029980;2018-04-25
29967;100029982;2018-05-02
29968;100029983;2018-05-08
30638;100030653;2018-05-07
30639;100030654;2018-05-10
30640;100030655;2018-05-21
30641;100030656;2018-05-22
30643;100030658;2018-05-07
30654;100030669;2018-06-01
30656;100030671;2018-05-16
30658;100030673;2018-05-14
30668;100030683;2018-05-16
30669;100030684;2018-05-11
30671;100030686;2018-05-09
30672;100030687;2018-05-10
30676;100030691;2018-05-09
30677;100030692;2018-05-17
30681;100030696;2018-05-17
30686;100030701;2018-05-09
30688;100030703;2018-05-09
30691;100030706;2018-05-08
30695;100030710;2018-05-15
30700;100030715;2018-05-11
30703;100030718;2018-05-09
30715;100030730;2018-05-23
30717;100030732;2018-05-17
30723;100030738;2018-05-14
30724;100030739;2018-05-15
30725;100030740;2018-05-23
30727;100030742;2018-05-16
30730;100030745;2018-05-14
30731;100030746;2018-05-17
30736;100030751;2018-05-08
30739;100030754;2018-05-17
30741;100030756;2018-05-08
30745;100030760;2018-05-17
30748;100030763;2018-05-11
30750;100030765;2018-05-16
30755;100030770;2018-05-16
30756;100030771;2018-05-15
30761;100030776;2018-05-16
30774;100030789;2018-05-11
30777;100030792;2018-05-09
30781;100030796;2018-05-07
30791;100030806;2018-05-15
30794;100030809;2018-05-10
30798;100030813;2018-06-04
30803;100030818;2018-05-21
30804;100030819;2018-05-15
30809;100030824;2018-05-24
30811;100030826;2018-05-28
30815;100030830;2018-05-21
30820;100030835;2018-05-30
30825;100030840;2018-06-05
30830;100030845;2018-05-21
30834;100030849;2018-05-25
30836;100030851;
30838;100030853;
30839;100030854;
30840;100030855;
30841;100030856;
30844;100030859;
30846;100030861;
30847;100030862;
30850;100030865;
30866;100030881;
30867;100030882;
30869;100030884;
30870;100030885;
30871;100030886;
30872;100030887;
30873;100030888;
30874;100030889;
30875;100030890;
30876;100030891;
31576;100031592;
31582;100031598;
31591;100031607;
31593;100031609;
31594;100031610;
31595;100031611;
31597;100031613;
31598;100031614;
31603;100031619;
31605;100031621;
31606;100031622;
31607;100031623;
31608;100031624;
31612;100031628;
31621;100031637;
31623;100031639;
31627;100031643;
31629;100031645;
31630;100031646;
31631;100031647;
31632;100031648;
31633;100031649;
31635;100031651;
31640;100031656;
31641;100031657;
31642;100031658;
31649;100031665;
31652;100031668;
31653;100031669;
31663;100031679;
31667;100031683;
31670;100031686;
31671;100031687;
31672;100031688;
31676;100031692;
31684;100031700;
31685;100031701;
31696;100031712;
31697;100031713;
31699;100031715;
31702;100031718;
31705;100031721;
31718;100031734;
31721;100031737;
31735;100031751;
31739;100031755;
31740;100031756;
31743;100031759;
31749;100031765;
31753;100031769;
31754;100031770;
31755;100031771;
31756;100031772;
31764;100031780;
31773;100031789;
31777;100031793;
31786;100031802;
31789;100031805;
31793;100031809;
31796;100031812;
31806;100031822;
31807;100031823;
31813;100031829;
31820;100031836;
31823;100031839;
31833;100031849;
31849;100031865;
31854;100031870;
31869;100031885;
31874;100031890;
31875;100031891;
31876;100031892;
31879;100031895;
31880;100031896;
31883;100031899;
31888;100031904;
31905;100031922;
31908;100031925;
31912;100031929;
31913;100031930;
32676;100032674;2018-07-05
32677;100032675;2018-06-20
32688;100032686;2018-06-19
32695;100032693;2018-07-04
32701;100032698;2018-07-03
32704;100032700;2018-06-28
32705;100032701;2018-06-20
32710;100032706;2018-06-25
32716;100032711;2018-07-16
32717;100032712;2018-06-29
32719;100032714;2018-07-04
32726;100032721;2018-07-03
32731;100032726;2018-07-04
32732;100032727;2018-07-05
32734;100032729;2018-07-04
32738;100032733;2018-06-29
32741;100032736;2018-07-04
32747;100032742;2018-07-05
32749;100032744;2018-06-26
32754;100032749;2018-06-25
32756;100032751;2018-06-28
32767;100032761;2018-06-28
32775;100032769;2018-07-05
32780;100032774;2018-06-29
32787;100032779;2018-07-11
32791;100032783;2018-07-03
32799;100032791;2018-06-28
32800;100032792;2018-06-28
32801;100032793;2018-06-28
32809;100032801;2018-06-21
32811;100032803;2018-07-05
32813;100032805;2018-06-29
32820;100032811;2018-07-11
32821;100032812;2018-07-04
32825;100032816;2018-07-17
32834;100032825;2018-07-04
32835;100032826;2018-06-25
32857;100032845;2018-07-04
32859;100032847;2018-07-05
32860;100032848;2018-07-17
32861;100032849;2018-07-03
32864;100032852;2018-07-05
32877;100032863;2018-06-28
32878;100032864;2018-07-03
32883;100032869;2018-07-18
32885;100032871;2018-07-05
32886;100032872;2018-06-28
32888;100032874;2018-06-26
32897;100032883;2018-06-25
32898;100032884;2018-07-13
32903;100032889;2018-07-19
32907;100032893;2018-06-21
32938;100032921;2018-06-29
32955;100032938;2018-07-17
32956;100032939;2018-07-04
32957;100032940;2018-07-11
32958;100032941;2018-07-16
32959;100032942;2018-06-25
32960;100032943;2018-07-13
32962;100032945;2018-07-17
33451;100033408;2018-07-18
33452;100033409;2018-07-16
33455;100033412;2018-07-17
33456;100033413;2018-07-12
33457;100033414;2018-07-11
33463;100033418;2018-07-26
33467;100033422;2018-07-04
33468;100033423;2018-07-17
33474;100033429;2018-07-18
33477;100033432;2018-07-19
33478;100033433;2018-07-12
33482;100033437;2018-07-25
33483;100033438;2018-07-25
33489;100033443;2018-07-17
33490;100033444;2018-07-18
33492;100033446;2018-07-18
33493;100033447;2018-07-26
33495;100033449;2018-07-17
33496;100033450;2018-07-18
33499;100033453;2018-07-16
33502;100033456;2018-07-11
33506;100033460;2018-07-11
33508;100033462;2018-07-13
33512;100033466;2018-07-17
33520;100033473;2018-07-16
33523;100033476;2018-07-13
33524;100033477;2018-07-16
33533;100033485;2018-07-12
33534;100033486;2018-07-12
33535;100033487;2018-07-05
33536;100033488;2018-07-18
33537;100033489;2018-07-12
33539;100033491;2018-07-12
33541;100033493;2018-07-25
33542;100033494;2018-07-23
33543;100033495;2018-07-23
33547;100033499;2018-07-23
33548;100033500;2018-07-16
33550;100033502;2018-07-25
33553;100033504;2018-07-25
33562;100033513;2018-07-04
33563;100033514;2018-07-11
33564;100033515;2018-07-25
33567;100033518;2018-07-17
33568;100033519;2018-07-17
33571;100033522;2018-07-26
33575;100033526;2018-07-18
33576;100033527;2018-07-05
33579;100033530;2018-07-16
33584;100033535;2018-07-19
33590;100033541;2018-07-23
33592;100033543;2018-07-20
33595;100033546;2018-07-18
33597;100033548;2018-07-19
33600;100033551;2018-07-19
33601;100033552;2018-07-11
33603;100033554;2018-07-05
33604;100033555;2018-07-19
33610;100033557;2018-07-18
33612;100033559;2018-07-26
33614;100033561;2018-07-13
33622;100033568;2018-07-05
33627;100033573;2018-07-18
33634;100033579;2018-07-19
33637;100033582;2018-07-16
33640;100033585;2018-07-19
33644;100033589;2018-07-19
33645;100033590;2018-07-20
33646;100033591;2018-07-11
33647;100033592;2018-07-26
33649;100033594;2018-07-26
33652;100033597;2018-07-17
33654;100033599;2018-07-12
33657;100033602;2018-07-11
33671;100033606;2018-07-20
33673;100033607;2018-07-13
33674;100033608;2018-07-20
33679;100033613;2018-07-19
33680;100033614;2018-07-18
33681;100033615;2018-07-20
33684;100033619;2018-07-27
33686;100033620;2018-07-27
33687;100033621;2018-07-24
33688;100033622;2018-07-19
33694;100033628;2018-07-11
34292;100034197;2018-07-23
34298;100034203;2018-07-31
34300;100034205;2018-07-30
34306;100034211;2018-07-20
34307;100034212;2018-07-20
34308;100034213;2018-07-25
34309;100034214;2018-07-25
34310;100034215;2018-07-24
34311;100034216;2018-07-16
34313;100034218;2018-07-19
34314;100034219;2018-07-27
34316;100034221;2018-07-19
34317;100034222;2018-07-18
34322;100034226;2018-07-19
34324;100034228;2018-07-16
34331;100034234;2018-08-02
34335;100034238;2018-07-20
34336;100034239;2018-07-30
34337;100034240;2018-07-26
34338;100034241;2018-08-02
34339;100034242;2018-07-26
34340;100034243;2018-07-31
34349;100034250;2018-07-18
34350;100034251;2018-07-26
34351;100034252;2018-07-26
34355;100034256;2018-07-18
34358;100034259;2018-07-24
34359;100034260;2018-07-31
34361;100034262;2018-07-17
34364;100034265;2018-07-27
34365;100034266;2018-07-23
34367;100034268;2018-07-31
34368;100034269;2018-07-24
34369;100034270;2018-07-26
34370;100034271;2018-07-26
34371;100034272;2018-07-24
34382;100034279;2018-07-26
34383;100034280;2018-07-26
34385;100034282;2018-07-24
34386;100034283;2018-07-19
34387;100034284;2018-07-17
34402;100034296;2018-07-19
34405;100034299;2018-08-02
34407;100034301;2018-07-18
34408;100034302;2018-08-03
34409;100034303;2018-07-24
34411;100034305;2018-08-02
34412;100034306;2018-07-26
34413;100034307;2018-07-30
34414;100034308;2018-07-31
34415;100034309;2018-07-24
34416;100034310;2018-07-23
34417;100034311;2018-07-20
34418;100034312;2018-07-30
34420;100034314;2018-07-27
34421;100034315;
34422;100034316;
34426;100034320;
34428;100034322;
34430;100034323;
34439;100034330;
34440;100034331;
34443;100034334;
34447;100034338;
34448;100034339;
34449;100034340;
34450;100034341;
34451;100034342;
34452;100034343;
34459;100034349;
34460;100034350;
34466;100034356;
34467;100034357;
34473;100034363;
34475;100034365;
34478;100034368;
34488;100034376;
34496;100034383;
35077;100034909;
35079;100034911;
35080;100034912;
35088;100034920;
35091;100034923;
35092;100034924;
35094;100034926;
35097;100034929;
35098;100034930;
35105;100034937;
35129;100034959;
35130;100034960;
35131;100034961;
35132;100034962;
35133;100034963;
35138;100034968;
35139;100034971;
35142;100034975;
35143;100034976;
35144;100034977;
35145;100034978;
35146;100034979;
35147;100034980;
35148;100034981;
35160;100034989;
35161;100034990;
35162;100034991;
35165;100034994;
35167;100034996;
35168;100034997;
35170;100034999;
35171;100035000;
35172;100035001;
35173;100035002;
35174;100035003;
35176;100035005;
35177;100035006;
35180;100035009;
35182;100035011;
35183;100035012;
35186;100035014;
35188;100035016;
35189;100035017;
35191;100035019;
35192;100035020;
35194;100035022;
35195;100035023;
35198;100035026;
35204;100035031;
35205;100035032;
35206;100035033;
35207;100035034;
35208;100035035;
35209;100035036;
35210;100035037;
35213;100035040;
35216;100035043;
35218;100035045;
35219;100035046;
35223;100035050;
35228;100035055;
35230;100035057;
35231;100035058;
35238;100035065;
35239;100035066;
35240;100035067;
35241;100035068;
35944;100035709;
35947;100035712;
35948;100035713;
35951;100035716;
35953;100035718;
35954;100035719;
35958;100035721;
35961;100035724;
35963;100035726;
35968;100035730;
35969;100035731;
35971;100035733;
35977;100035739;
35985;100035747;
35986;100035748;
35987;100035749;
35988;100035750;
35992;100035754;
36003;100035765;
36011;100035773;
36023;100035785;
36024;100035786;
36028;100035790;
36034;100035796;
36037;100035799;
36038;100035800;
36062;100035821;
36067;100035826;
36068;100035827;
36069;100035828;
36077;100035836;
36078;100035837;
36081;100035840;2018-08-20
36090;100035848;2018-08-21
36093;100035851;2018-08-22
36094;100035852;2018-08-13
36095;100035853;2018-08-20
36102;100035859;2018-08-20
36103;100035860;2018-08-16
36104;100035861;2018-08-21
36106;100035863;2018-08-13
36111;100035868;2018-08-28
36112;100035869;2018-08-23
36113;100035870;2018-08-23
36114;100035871;2018-08-13
36121;100035878;2018-08-22
36124;100035881;2018-08-20
36127;100035884;2018-08-29
36129;100035886;2018-08-15
36130;100035887;2018-08-16
36131;100035888;2018-08-21
36133;100035890;2018-08-24
36134;100035891;2018-08-21
36135;100035892;2018-08-16
36136;100035893;2018-08-13
36146;100035902;2018-08-21
36147;100035903;2018-08-24
36157;100035913;2018-08-22
36158;100035914;2018-08-22
36163;100035918;2018-08-24
36168;100035922;2018-08-27
36174;100035928;2018-08-24
36183;100035936;2018-08-17
36187;100035940;2018-08-21
36197;100035947;2018-08-15
36203;100035953;2018-08-21
36208;100035958;2018-08-27
36214;100035964;2018-08-21
36220;100035969;2018-08-29
36221;100035970;2018-08-14
36225;100035974;2018-08-14
36227;100035976;2018-08-20
36229;100035978;2018-08-27
36230;100035979;2018-08-24
36232;100035981;2018-08-15
36236;100035985;2018-08-14
36247;100035996;2018-08-23
36249;100035998;2018-08-14
36251;100036000;2018-08-21
36257;100036006;2018-08-21
36262;100036011;2018-08-24
36263;100036012;2018-08-20
36269;100036018;2018-08-24
36969;100036656;2018-08-24
36973;100036660;2018-08-31
36974;100036661;2018-09-11
36982;100036666;2018-09-10
36989;100036671;2018-08-27
36991;100036673;2018-08-29
36998;100036680;2018-09-03
37002;100036684;2018-08-23
37008;100036690;2018-08-31
37009;100036691;2018-08-24
37010;100036692;2018-08-24
37014;100036695;2018-08-24
37015;100036696;2018-08-24
37016;100036697;2018-08-27
37017;100036698;2018-08-24
37018;100036699;2018-08-28
37023;100036704;2018-09-04
37024;100036705;2018-08-23
37028;100036709;2018-08-31
37033;100036713;2018-09-04
37037;100036717;2018-09-06
37039;100036719;2018-08-30
37054;100036726;2018-09-04
37055;100036727;2018-08-28
37064;100036736;2018-08-31
37071;100036742;2018-09-04
37072;100036743;2018-09-04
37075;100036746;2018-08-30
37076;100036747;2018-08-30
37077;100036748;2018-08-27
37085;100036755;2018-09-05
37087;100036757;2018-08-27
37099;100036769;2018-08-24
37102;100036772;2018-08-28
37103;100036773;2018-08-28
37105;100036775;2018-08-31
37109;100036779;2018-09-03
37111;100036781;2018-09-04
37113;100036783;2018-09-28
37118;100036788;2018-08-31
37119;100036789;2018-09-04
37121;100036791;2018-08-28
37125;100036795;2018-09-04
37126;100036796;2018-08-28
37127;100036797;2018-08-27
37129;100036799;2018-09-03
37134;100036803;2018-08-28
37142;100036811;2018-09-05
37146;100036815;2018-08-28
37151;100036820;2018-08-29
37154;100036823;2018-09-05
37160;100036826;2018-09-25
37163;100036829;2018-09-12
37165;100036831;2018-09-06
37167;100036833;2018-08-28
37170;100036836;2018-08-29
37171;100036837;2018-09-06
37185;100036851;2018-09-10
37194;100036860;2018-09-03
37203;100036868;2018-09-06
37212;100036877;2018-09-06
37216;100036881;2018-09-14
37224;100036889;2018-09-13
37228;100036893;2018-09-24
37231;100036896;2018-08-30
37232;100036897;2018-09-10
37233;100036898;2018-09-06
37236;100036901;2018-09-05
37263;100036926;2018-08-30
37272;100036935;2018-09-06
37273;100036936;2018-09-14
37285;100036948;2018-09-04
37288;100036951;2018-09-12
37289;100036952;2018-09-10
37290;100036953;2018-10-01
37292;100036955;2018-08-31
38107;100037746;2018-09-24
38108;100037747;2018-09-17
38110;100037749;2018-09-18
38111;100037750;2018-09-24
38116;100037755;2018-09-24
38117;100037756;2018-10-03
38120;100037759;2018-09-25
38128;100037767;2018-09-25
38129;100037768;2018-10-01
38130;100037769;2018-09-24
38134;100037773;2018-09-24
38135;100037774;2018-09-14
38136;100037775;2018-09-18
38137;100037776;2018-09-27
38138;100037777;2018-09-13
38141;100037780;2018-09-24
38143;100037782;2018-10-01
38152;100037791;2018-10-03
38153;100037792;2018-09-19
38154;100037793;2018-09-27
38155;100037794;2018-09-19
38157;100037796;2018-09-20
38158;100037797;2018-09-14
38159;100037798;2018-09-13
38169;100037808;2018-09-24
38171;100037810;2018-09-18
38174;100037813;2018-09-27
38175;100037814;2018-09-14
38177;100037816;2018-10-02
38178;100037817;2018-09-28
38180;100037819;2018-09-18
38184;100037823;2018-09-14
38186;100037825;2018-09-27
38189;100037828;2018-09-20
38192;100037831;2018-10-05
38193;100037832;2018-09-18
38197;100037836;2018-09-13
38200;100037839;2018-10-16
38202;100037841;2018-09-24
38208;100037847;2018-10-05
38212;100037851;2018-10-08
38215;100037854;2018-09-18
38216;100037855;2018-09-18
38220;100037859;2018-09-20
38221;100037860;2018-09-19
38222;100037861;2018-09-14
38225;100037864;2018-09-18
38235;100037874;2018-09-14
38236;100037875;2018-09-24
38237;100037876;2018-09-13
38238;100037877;2018-09-24
38239;100037878;2018-09-24
38242;100037881;2018-09-19
38243;100037882;2018-09-14
38244;100037883;2018-09-27
38246;100037885;2018-09-24
38247;100037886;2018-09-25
38254;100037893;2018-10-08
38266;100037905;2018-09-19
38276;100037915;2018-09-26
38278;100037917;2018-09-26
38293;100037932;2018-09-25
38295;100037934;2018-09-28
38302;100037941;2018-09-14
38311;100037950;2018-09-26
38315;100037954;2018-10-09
38316;100037955;2018-09-25
38320;100037959;2018-09-14
38321;100037960;2018-10-15
38326;100037964;2018-09-21
38329;100037967;2018-10-04
38335;100037973;2018-10-09
38339;100037977;2018-09-26
38343;100037981;
38346;100037984;
38347;100037985;
38359;100037997;
38390;100038028;
38394;100038032;
38408;100038046;
38418;100038056;
38420;100038058;
38421;100038059;
38423;100038061;
38424;100038062;
38425;100038063;
38427;100038065;
38435;100038073;
38449;100038086;
38450;100038087;
38459;100038096;
38464;100038101;
38789;100038425;
38794;100038430;
39491;100039127;
39492;100039128;
39493;100039129;
39495;100039131;
39496;100039132;
39510;100039146;
39524;100039160;
39561;100039197;
39562;100039198;
39563;100039199;
39564;100039200;
39565;100039201;
39573;100039209;
39582;100039218;
39589;100039226;
39590;100039227;
39598;100039235;
39604;100039241;
39607;100039244;
39616;100039253;
39617;100039254;
39618;100039255;
39683;100039320;
